CPE3AG1_GRP2and6_PROJECT/CPE3AG1_GRP2and6_PROJECT.sim/sim_1/behav/xsim/simulate.log
Time resolution is 1 ps
opcode=00000001 A=  2 B= 0 result=  3 carry=0 zero=0 overflow=0 negative=0
opcode=10000000 A=128 B= 0 result=  0 carry=1 zero=1 overflow=1 negative=0
opcode=01111111 A=  1 B= 0 result=128 carry=0 zero=0 overflow=1 negative=1
opcode=11111111 A=  1 B= 0 result=  0 carry=1 zero=1 overflow=0 negative=0
opcode=00010000 A=  5 B= 1 result= 11 carry=0 zero=0 overflow=0 negative=0
opcode=00000101 A= 16 B= 1 result=245 carry=1 zero=0 overflow=0 negative=1
opcode=10000000 A=  1 B= 1 result=127 carry=0 zero=0 overflow=1 negative=0
opcode=01111111 A=128 B= 1 result=255 carry=1 zero=0 overflow=1 negative=1
opcode=11110000 A= 15 B= 2 result=  0 carry=0 zero=1 overflow=0 negative=0
opcode=00000000 A=  0 B= 3 result=  0 carry=0 zero=1 overflow=0 negative=0
opcode=11111111 A=255 B= 4 result=  0 carry=0 zero=1 overflow=0 negative=0
opcode=00000000 A=255 B= 5 result=255 carry=0 zero=0 overflow=0 negative=1
opcode=11111111 A=255 B= 5 result=  0 carry=0 zero=1 overflow=0 negative=0
opcode=01000000 A=255 B= 6 result=128 carry=0 zero=0 overflow=0 negative=1
opcode=10000000 A=255 B= 6 result=  0 carry=1 zero=1 overflow=0 negative=0
opcode=11111111 A=255 B= 6 result=254 carry=1 zero=0 overflow=0 negative=1
opcode=00000010 A=255 B= 7 result=  1 carry=0 zero=0 overflow=0 negative=0
opcode=00000001 A=255 B= 7 result=  0 carry=1 zero=1 overflow=0 negative=0
opcode=10000000 A=255 B= 7 result= 64 carry=0 zero=0 overflow=0 negative=0
opcode=00000000 A=255 B= 8 result=  0 carry=0 zero=1 overflow=0 negative=0
opcode=01111111 A=255 B= 8 result=  1 carry=0 zero=0 overflow=0 negative=0
opcode=11111111 A=255 B= 8 result=  0 carry=1 zero=1 overflow=0 negative=0
opcode=10000000 A=255 B= 8 result=  1 carry=0 zero=0 overflow=0 negative=0
opcode=00000001 A=255 B= 9 result=  0 carry=0 zero=1 overflow=0 negative=0
opcode=00000000 A=255 B= 9 result=  0 carry=0 zero=1 overflow=0 negative=0
opcode=10000000 A=255 B= 9 result=  1 carry=0 zero=0 overflow=0 negative=0
opcode=10000001 A=255 B= 9 result=  1 carry=0 zero=0 overflow=0 negative=0
$finish called at time : 280 ns : File "C:/Users/TISOY/Documents/CJ/School/Bs CpE/3rd Year/Acads/2nd_Sem/HDL/1 - Codes/Project/HDL-Project/CPE3AG1_GRP2and6_PROJECT/CPE3AG1_GRP2and6_PROJECT.srcs/sim_1/new/alu8_tb.v" Line 74
